<?xml version="1.0" encoding="UTF-8" standalone="no"?>
<!-- Created with Inkscape (http://www.inkscape.org/) -->

<svg
   version="1.1"
   inkscape:version="1.2.2 (b0a8486541, 2022-12-01)"
   sodipodi:docname="infinite.svg"
   viewBox="0 0 100.00001 38"
   id="svg5854"
   width="100.00001"
   height="38"
   xmlns:inkscape="http://www.inkscape.org/namespaces/inkscape"
   xmlns:sodipodi="http://sodipodi.sourceforge.net/DTD/sodipodi-0.dtd"
   xmlns="http://www.w3.org/2000/svg"
   xmlns:svg="http://www.w3.org/2000/svg">
  <defs
     id="defs5847" />
  <sodipodi:namedview
     id="base"
     pagecolor="#ffffff"
     bordercolor="#666666"
     borderopacity="1.0"
     inkscape:pageopacity="0.0"
     inkscape:pageshadow="2"
     inkscape:zoom="2.803221"
     inkscape:cx="4.4591561"
     inkscape:cy="73.308526"
     inkscape:current-layer="layer1"
     showgrid="true"
     inkscape:grid-bbox="true"
     inkscape:document-units="px"
     inkscape:snap-global="true"
     inkscape:window-width="1523"
     inkscape:window-height="1250"
     inkscape:window-x="1009"
     inkscape:window-y="82"
     inkscape:window-maximized="0"
     inkscape:snap-bbox="true"
     inkscape:bbox-nodes="true"
     inkscape:object-nodes="true"
     inkscape:snap-nodes="true"
     inkscape:showpageshadow="2"
     inkscape:pagecheckerboard="true"
     inkscape:deskcolor="#d1d1d1"
     showguides="true">
    <inkscape:grid
       type="xygrid"
       id="grid3311"
       originx="-0.10346439"
       originy="-0.12644478" />
  </sodipodi:namedview>
  <g
     id="layer1"
     inkscape:label="Layer 1"
     inkscape:groupmode="layer"
     transform="translate(-10.346435,-4.8044075)">
    <path
       d="m 31.650391,7.3242188 c -3.110167,0 -5.769438,0.4792623 -8.023438,1.3808593 -2.326214,0.9304833 -4.237027,2.1572159 -5.806641,3.6894529 h -0.002 c -1.528175,1.490899 -2.662701,3.209953 -3.449218,5.232422 -0.002,0.0046 -0.0039,0.0091 -0.0059,0.01367 -0.791063,1.996485 -1.189453,4.117539 -1.189453,6.421875 0,2.320857 0.365846,4.459972 1.082031,6.466797 0.742837,1.920638 1.811291,3.565749 3.244141,5.003906 1.466993,1.387538 3.304772,2.534466 5.582031,3.423828 2.254057,0.864053 4.971849,1.328125 8.183594,1.328125 2.070207,0 4.167485,-0.326017 6.320313,-0.990234 2.264816,-0.7289 4.519196,-1.679834 6.763671,-2.863281 0.0052,-0.0026 0.01041,-0.0052 0.01563,-0.0078 2.32139,-1.202145 4.627457,-2.574986 6.919922,-4.117187 0.0052,-0.0033 0.01041,-0.0066 0.01563,-0.0098 2.380987,-1.573147 4.762673,-3.210785 7.144531,-4.912109 0.823427,-0.5883 1.932598,-0.577249 2.744141,0.02734 2.321164,1.730319 4.685823,3.397391 7.091797,5.001953 0.0025,0.0016 0.0053,0.0023 0.0078,0.0039 2.371788,1.539228 4.733894,2.910351 7.091797,4.111328 0.0025,0.0012 0.0053,7.32e-4 0.0078,0.002 2.336621,1.147329 4.662992,2.065848 6.976562,2.755859 2.251715,0.671562 4.425433,0.998047 6.546875,0.998047 3.072498,0 5.720978,-0.458413 7.986329,-1.326172 2.357364,-0.929454 4.251704,-2.152102 5.761724,-3.662109 0.006,-0.0065 0.013,-0.01306 0.0195,-0.01953 1.58052,-1.542889 2.7614,-3.293032 3.58789,-5.316406 l 0.002,-0.0059 c 0.83085,-2.079255 1.24805,-4.280618 1.24805,-6.666016 0,-2.223694 -0.37795,-4.261915 -1.12696,-6.171874 -0.001,-0.0046 -0.003,-0.0091 -0.004,-0.01367 -0.74204,-1.929279 -1.83194,-3.581988 -3.31836,-5.03125 -0.007,-0.0065 -0.0144,-0.01298 -0.0215,-0.01953 -1.41373,-1.413898 -3.208686,-2.5462555 -5.478321,-3.3925568 -0.0111,-0.00447 -0.02217,-0.00903 -0.0332,-0.013672 -2.206433,-0.8601302 -4.876996,-1.3222654 -8.042971,-1.3222654 -2.167435,-10e-8 -4.387902,0.3294493 -6.683594,1.0019531 -2.305041,0.68801 -4.647855,1.6217815 -7.025391,2.8105471 -0.0052,0.0026 -0.01041,0.0052 -0.01563,0.0078 -2.35933,1.158967 -4.724455,2.507067 -7.099609,4.048828 -2.380063,1.572769 -4.718805,3.168301 -7.013672,4.783203 -0.80284,0.565301 -1.874051,0.566101 -2.677735,0.002 -2.425454,-1.702108 -4.850177,-3.34111 -7.273432,-4.914097 -2.375155,-1.541761 -4.740279,-2.889862 -7.099609,-4.048828 -0.0052,-0.0026 -0.01043,-0.0052 -0.01563,-0.0078 C 42.297443,9.8625911 40.043817,8.9707357 37.828125,8.3261719 37.8118,8.321792 37.795523,8.3172344 37.779297,8.3125 35.664313,7.646674 33.629149,7.3242187 31.650391,7.3242188 Z m -0.449219,3.7167972 c 1.893181,0 3.79682,0.328276 5.68164,0.955078 1.874868,0.60965 3.749828,1.444781 5.625,2.496094 0.0027,0.0015 0.0052,0.0024 0.0078,0.0039 1.864928,1.022163 3.742729,2.171882 5.636719,3.449218 1.911135,1.260005 3.862022,2.604529 5.853515,4.033204 3.23896,2.021517 2.668533,1.707737 0,3.78125 -1.998996,1.434056 -3.956703,2.781879 -5.873047,4.044922 -1.886898,1.271818 -3.737275,2.41712 -5.552734,3.435546 -0.0123,0.0073 -0.02467,0.01443 -0.03711,0.02148 -1.85518,0.995459 -3.664542,1.802333 -5.435547,2.408203 -0.01752,0.0054 -0.03509,0.01063 -0.05273,0.01563 -1.823326,0.575786 -3.607543,0.880859 -5.339844,0.880859 -4.004163,0 -7.452233,-1.06971 -9.871094,-3.433594 -2.405304,-2.35063 -3.535156,-5.723974 -3.535156,-9.585937 0,-1.708734 0.282015,-3.351908 0.859375,-4.876953 0.576541,-1.564852 1.445818,-2.967305 2.591797,-4.113281 1.144348,-1.144344 2.545238,-2.011331 4.107422,-2.587891 1.633536,-0.62993 3.425861,-0.927734 5.333984,-0.927734 z m 57.646484,0 c 1.836341,0 3.578749,0.242384 5.203125,0.75 1.652714,0.516474 3.135451,1.357626 4.347657,2.501953 1.254391,1.102263 2.231072,2.50084 2.902342,4.101562 0.69973,1.668588 1.01953,3.531989 1.01953,5.539063 0,1.747262 -0.27881,3.42429 -0.85156,4.986328 -0.003,0.0085 -0.007,0.01695 -0.01,0.02539 -0.58571,1.544151 -1.494001,2.925699 -2.67773,4.060547 -1.144344,1.137821 -2.546869,2.015921 -4.128906,2.628907 -0.0014,5.37e-4 -0.0025,0.0014 -0.0039,0.002 -1.606543,0.638402 -3.38268,0.929687 -5.285157,0.929687 -1.860052,0 -3.75853,-0.327434 -5.677734,-0.951172 -0.0059,-0.0013 -0.01172,-0.0026 -0.01758,-0.0039 -1.823233,-0.607743 -3.699893,-1.437453 -5.642578,-2.476562 -0.0065,-0.0039 -0.01304,-0.0078 -0.01953,-0.01172 -1.868781,-1.023378 -3.796,-2.193433 -5.779297,-3.515625 -1.942588,-1.295058 -3.948235,-2.655455 -6.017578,-4.078125 -2.010847,-1.774669 -3.640525,-1.781481 -0.01172,-3.828125 1.98065,-1.377838 3.921052,-2.692507 5.818359,-3.94336 l 0.0039,-0.002 c 1.949064,-1.328705 3.845283,-2.468024 5.697266,-3.417968 1.861526,-0.997577 3.704088,-1.78073 5.527344,-2.34375 1.874482,-0.621949 3.75055,-0.953125 5.603515,-0.953125 z"
       id="path1309" />
  </g>
</svg>
