<?xml version="1.0" encoding="UTF-8" standalone="no"?>
<!-- Created with Inkscape (http://www.inkscape.org/) -->

<svg
   version="1.1"
   width="361"
   height="247"
   id="svg2985"
   xml:space="preserve"
   inkscape:version="1.2.2 (b0a8486541, 2022-12-01)"
   viewBox="0 0 361 247"
   sodipodi:docname="mysql-logo.svg"
   xmlns:inkscape="http://www.inkscape.org/namespaces/inkscape"
   xmlns:sodipodi="http://sodipodi.sourceforge.net/DTD/sodipodi-0.dtd"
   xmlns="http://www.w3.org/2000/svg"
   xmlns:svg="http://www.w3.org/2000/svg"><sodipodi:namedview
     id="namedview3009"
     pagecolor="#ffffff"
     bordercolor="#666666"
     borderopacity="1.0"
     inkscape:showpageshadow="2"
     inkscape:pageopacity="0.0"
     inkscape:pagecheckerboard="true"
     inkscape:deskcolor="#d1d1d1"
     showgrid="false"
     inkscape:zoom="2.0853185"
     inkscape:cx="198.77059"
     inkscape:cy="23.257838"
     inkscape:current-layer="layer1"
     showguides="true" /><defs
     id="defs3649" /><g
     id="layer1"
     transform="translate(0,3.154181)"><rect
       id="rect286"
       width="361"
       height="247"
       x="0"
       y="-3.154182"
       rx="0.49889752"
       ry="0.5"
       style="opacity:0;fill:#00ffff;stroke-width:1"
       sodipodi:insensitive="true"
       inkscape:label="bg" /><path
       d="m 210.98325,58.946003 -0.008,0.0055 c -2.58644,-0.03856 -4.84055,0.938966 -6.00445,3.802346 -1.99609,4.819726 2.95491,9.557896 4.65731,12.006068 1.25548,1.702412 2.88321,3.633031 3.76579,5.557274 0.51811,1.260572 0.6673,2.596452 1.18682,3.928901 1.18141,3.26034 2.28746,6.893266 3.84174,9.936157 0.81034,1.556465 1.6961,3.188031 2.73081,4.589801 0.5969,0.8202 1.63044,1.18479 1.85337,2.52273 -1.03143,1.48057 -1.11397,3.70295 -1.70432,5.56008 -2.65941,8.3734 -1.62564,18.75221 2.14587,24.90365 1.17957,1.85238 3.99239,5.92838 7.765,4.37046 3.326,-1.33173 2.5861,-5.55793 3.54641,-9.2612 0.22106,-0.89571 0.0722,-1.48338 0.51467,-2.07552 v 0.14903 c 1.03436,2.07201 2.07145,4.07018 3.03174,6.1535 2.29458,3.62775 6.28245,7.40461 9.60993,9.92209 1.7688,1.33903 3.17655,3.63365 5.39415,4.45201 v -0.22499 h -0.1463 c -0.44547,-0.66515 -1.10933,-0.96305 -1.70149,-1.47933 -1.32988,-1.335 -2.80371,-2.96544 -3.84171,-4.44638 -3.10309,-4.14838 -5.84045,-8.74509 -8.27404,-13.48819 -1.18614,-2.30297 -2.21906,-4.8204 -3.18081,-7.11533 -0.44221,-0.88514 -0.44335,-2.22249 -1.18401,-2.66615 -1.11172,1.62872 -2.73461,3.03816 -3.54641,5.03135 -1.40544,3.19067 -1.55136,7.11786 -2.07272,11.1933 -0.29377,0.0774 -0.14414,0.002 -0.29253,0.14904 -2.36241,-0.59252 -3.17791,-3.04028 -4.06669,-5.11009 -2.21723,-5.26852 -2.58871,-13.71875 -0.66374,-19.79358 0.51482,-1.55354 2.73872,-6.44315 1.84772,-7.9281 -0.44693,-1.41418 -1.92462,-2.22184 -2.73643,-3.3383 -0.95848,-1.407617 -1.99914,-3.181925 -2.65772,-4.741678 -1.77499,-4.148398 -2.66588,-8.746394 -4.58136,-12.894789 -0.8877,-1.93008 -2.44328,-3.929487 -3.69546,-5.706327 -1.40725,-2.001593 -2.95856,-3.409356 -4.06953,-5.779454 -0.36631,-0.816907 -0.88421,-2.153587 -0.2953,-3.040184 0.14528,-0.593986 0.44559,-0.815791 1.03774,-0.964649 0.95555,-0.815451 3.69213,0.221468 4.6517,0.666535 2.73678,1.108427 5.02736,2.14864 7.315,3.701098 1.03583,0.742477 2.14487,2.151912 3.4733,2.525523 h 1.55806 c 2.36427,0.514807 5.0264,0.142946 7.24472,0.812774 3.91488,1.258749 7.46052,3.112786 10.64205,5.112921 9.6796,6.151445 17.66339,14.899426 23.05594,25.34522 0.88915,1.70239 1.26093,3.26122 2.07272,5.03696 1.55247,3.63869 3.47792,7.3443 5.02855,10.89801 1.551,3.48361 3.03205,7.03724 5.25071,9.93052 1.10552,1.55356 5.54145,2.37062 7.53721,3.18642 1.47511,0.66478 3.76995,1.25593 5.10167,2.06992 2.51274,1.55357 5.02021,3.33546 7.38814,5.04263 1.17955,0.88951 4.87347,2.74241 5.09602,4.227 -5.91288,-0.14808 -10.49622,0.44381 -14.33755,2.07553 -1.10878,0.44404 -2.87994,0.44504 -3.03174,1.85338 0.59546,0.59178 0.66864,1.55492 1.18964,2.37364 0.88441,1.48205 2.43302,3.47895 3.84173,4.51951 1.55247,1.18651 3.10245,2.36852 4.73041,3.4058 2.88055,1.78632 6.13486,2.81787 8.94057,4.59545 1.63127,1.03618 3.2497,2.3699 4.87951,3.48453 0.81034,0.59254 1.32331,1.55701 2.3624,1.92368 v -0.22501 c -0.52102,-0.66514 -0.66357,-1.62827 -1.17836,-2.37366 -0.73736,-0.73555 -1.48116,-1.40494 -2.22181,-2.14304 -2.14463,-2.89001 -4.80838,-5.40773 -7.68344,-7.48376 -2.36717,-1.63491 -7.54311,-3.85946 -8.49902,-6.59222 0,0 -0.0793,-0.0789 -0.15193,-0.15185 1.62652,-0.15044 3.55312,-0.74297 5.10448,-1.19247 2.50949,-0.66513 4.80132,-0.51643 7.38813,-1.18119 1.18432,-0.29864 2.36726,-0.67084 3.55487,-1.03496 v -0.67215 c -1.33758,-1.331 -2.29298,-3.1128 -3.69549,-4.37045 -3.76529,-3.25963 -7.91026,-6.44338 -12.19729,-9.11776 -2.2946,-1.48278 -5.25102,-2.44188 -7.6919,-3.70391 -0.88295,-0.44549 -2.36033,-0.6636 -2.87988,-1.409 -1.33133,-1.62982 -2.0729,-3.77626 -3.03176,-5.70633 -2.14132,-4.07178 -4.2145,-8.59232 -6.06068,-12.8976 -1.32989,-2.8882 -2.1428,-5.77487 -3.76859,-8.4456 -7.61815,-12.602071 -15.89325,-20.232048 -28.60477,-27.718862 -2.73531,-1.558295 -5.98825,-2.224739 -9.45804,-3.040187 -1.85091,-0.0776 -3.69341,-0.222491 -5.54322,-0.295316 -1.18432,-0.521013 -2.37007,-1.929242 -3.40299,-2.595833 -2.63424,-1.666653 -7.86589,-4.549447 -12.1748,-4.615123 z m 18.22708,18.3255 c -1.25402,0 -2.13932,0.151155 -3.03176,0.371234 v 0.14905 h 0.14627 c 0.5969,1.18286 1.63259,2.004364 2.3652,3.040189 0.59547,1.186143 1.11362,2.367252 1.70431,3.554853 0.0726,-0.07282 0.14346,-0.149047 0.14346,-0.149047 1.04238,-0.737733 1.55807,-1.923419 1.55807,-3.703908 -0.44696,-0.522473 -0.51582,-1.037048 -0.88871,-1.558061 -0.4422,-0.739561 -1.40427,-1.110688 -1.9968,-1.704307 z m 1.2993,84.048127 c -7.79328,0 -13.86955,2.57413 -18.21862,7.72843 -4.77594,5.63336 -7.16033,13.93136 -7.16033,24.89524 0,10.78147 2.11118,18.69279 6.33912,23.71685 3.85286,4.54244 9.68037,6.81441 17.48459,6.81441 2.91046,0 5.5834,-0.35829 8.00967,-1.07715 l 14.64129,8.54402 3.99076,-6.89596 0.0198,0.004 -11.24674,-5.56008 c 1.00116,-0.82313 1.9545,-1.71112 2.81521,-2.73927 4.77592,-5.62605 7.16032,-13.9557 7.16032,-24.98523 0,-20.29323 -7.94556,-30.44409 -23.83497,-30.44409 z m -48.6655,0.0928 c -5.49471,0 -9.98264,1.53357 -13.46007,4.59544 -3.4694,3.05383 -5.20572,7.0705 -5.20572,12.03982 0,6.00552 2.33011,9.65121 6.97471,13.04946 0,0 8.57596,4.92875 12.86666,7.28972 4.64715,2.61236 7.18,5.72327 7.18,9.36523 0,2.89329 -1.24836,5.1784 -3.32984,6.81441 -2.08697,1.62432 -4.96868,2.44396 -8.6537,2.44396 -3.92585,0 -8.30234,-1.20778 -13.13666,-3.63078 l -2.62677,5.2676 c 5.61876,3.80871 11.4166,5.72881 17.40023,5.72881 6.39589,0 11.50603,-1.66803 15.30781,-4.99477 3.80033,-3.34207 5.70632,-7.61041 5.70632,-12.81323 l 0.006,0.008 c 0,-5.95807 -2.38354,-9.57586 -7.16314,-12.96792 0,0 -8.78561,-5.02607 -13.13103,-7.38813 -4.77814,-2.66344 -7.36564,-5.81151 -7.36564,-9.444 0,-2.36499 1.04868,-4.30599 2.7449,-5.8132 1.68564,-1.52035 4.10513,-2.27523 7.2447,-2.27523 3.8711,0 7.79207,0.84777 11.77264,2.5396 l 2.36239,-5.26479 c -4.65185,-3.03008 -9.81261,-4.5504 -15.49339,-4.5504 z m 81.40448,0.82684 v 61.33251 h 29.0885 v -0.008 -7.54561 h -19.30139 v -53.7786 z m -210.900731,0.006 c -2.414606,19.08189 -3.924833,39.5215 -4.527944,61.3325 h 9.337129 c 0.30136,-17.93988 1.02431,-34.23064 2.17396,-48.89051 h 0.0901 l 15.49625,48.89051 h 7.79594 l 15.59185,-48.89051 h 0.0901 c 1.631256,15.26916 2.629476,31.56357 2.989556,48.89051 h 10.23143 c -0.4816,-18.53446 -2.04923,-38.98137 -4.70792,-61.33236 H 94.764454 l -14.86345,45.06038 h -0.0901 l -14.77345,-45.06002 z m 177.166171,6.61474 c 4.89636,0 8.49057,1.84942 10.7855,5.54321 2.47482,3.99881 3.71236,10.36118 3.71236,19.08484 0,15.56835 -4.6829,23.35968 -14.04506,23.35968 -4.89271,0 -8.49139,-1.84641 -10.78268,-5.54603 v -0.008 c -2.47773,-3.99882 -3.71797,-10.41149 -3.71797,-19.25923 0,-15.44429 4.68569,-23.17405 14.04785,-23.17405 z m -112.81881,9.45805 11.23548,34.98608 c 1.68927,5.26849 2.53957,8.75071 2.53957,10.448 0,2.48466 -1.08893,4.72658 -3.26235,6.72161 -1.81698,1.63711 -4.20309,2.45802 -7.16314,2.45802 -1.62981,0 -3.04883,-0.0953 -4.25796,-0.2728 v 5.47008 c 2.47736,1.01503 4.56328,1.52431 6.25474,1.52431 6.34482,0 12.17064,-3.9633 17.49022,-11.88795 6.82642,-10.25239 12.32717,-26.75309 16.49746,-49.43609 l -0.006,0.006 h -9.69744 c -1.75128,13.91558 -4.8332,26.78882 -9.24431,38.6028 0.30248,-2.36426 -0.4549,-6.5134 -2.26677,-12.45323 l -8.0631,-26.16575 z m 188.05856,37.73659 v 7.5175 h 1.44837 v -5.72321 h 0.0817 l 2.13458,5.72321 h 1.09965 l 2.13179,-5.72321 v 5.72321 h 1.52715 V 216.055 h -2.29774 l -1.87024,5.12415 -2.03898,-5.12415 z m -7.6525,0.004 v 1.27399 h 2.2049 v 6.24069 h 1.62274 v -6.24069 h 2.12337 v -1.27399 z"
       id="path892" /></g></svg>
